【KAKEN】条件を変えて繰り返しグラフを描画
…
下記のコードは各研究機関のデータにアクセスするための例です。data列はリスト形式なので中身を確認するにはブラケット２つで何番目の要素なのかを指定します。

# 京都大学のデータにアクセス
D2$data[[1]]

## # A tibble: 130 x 3
##    指標        中区分コード    値
##    <chr>       <fct>        <dbl>
##  1 配分額_対数 1             3.81
##  2 配分額_対数 3             3.19
##  3 配分額_対数 50            3.78
##  4 配分額_対数 53            3.88
##  5 配分額_対数 54            3.53
##  6 配分額_対数 90            3.97
##  7 配分額_対数 10            3.92
##  8 配分額_対数 61            4   
##  9 配分額_対数 9             3.69
## 10 配分額_対数 12            4   
## # … with 120 more rows
…
